graph.vcd
$date
     Apr 09, 2024       12:12:59
$end

$version
              SystemC 2.3.0-ASI --- Sep 10 2012 16:44:06
$end

$timescale
     1 ps
$end

$scope module SystemC $end
$var wire    1  aaa  s_clock       $end
$var wire    1  aab  d_clock       $end
$var wire   11  aac  si_source(0).data [10:0]  $end
$var wire    4  aad  si_source(0).id [3:0]  $end
$var wire    4  aae  si_source(0).dest [3:0]  $end
$var wire    1  aaf  si_source(0).pkt_clk       $end
$var wire    1  aag  si_source(0).h_t       $end
$var wire   11  aah  si_source(1).data [10:0]  $end
$var wire    4  aai  si_source(1).id [3:0]  $end
$var wire    4  aaj  si_source(1).dest [3:0]  $end
$var wire    1  aak  si_source(1).pkt_clk       $end
$var wire    1  aal  si_source(1).h_t       $end
$var wire   11  aam  si_sink(0).data [10:0]  $end
$var wire    4  aan  si_sink(0).id [3:0]  $end
$var wire    4  aao  si_sink(0).dest [3:0]  $end
$var wire    1  aap  si_sink(0).pkt_clk       $end
$var wire    1  aaq  si_sink(0).h_t       $end
$var wire   11  aar  si_sink(1).data [10:0]  $end
$var wire    4  aas  si_sink(1).id [3:0]  $end
$var wire    4  aat  si_sink(1).dest [3:0]  $end
$var wire    1  aau  si_sink(1).pkt_clk       $end
$var wire    1  aav  si_sink(1).h_t       $end
$upscope $end
$enddefinitions  $end

$comment
All initial values are dumped below at time 0 sec = 0 timescale units.
$end

$dumpvars
1aaa
0aab
b0 aac
b0 aad
b0 aae
0aaf
0aag
b0 aah
b0 aai
b0 aaj
0aak
0aal
b0 aam
b0 aan
b0 aao
0aap
0aaq
b0 aar
b0 aas
b0 aat
0aau
0aav
$end

#2500
0aaa

#5000
1aaa
b1111101001 aac
b1 aae
1aaf
b1111101010 aah
b1 aai
b10 aaj
1aak

#7500
0aaa

#10000
1aaa
1aab
b1111101010 aac
0aaf
b1111101100 aah
0aak

#12500
0aaa
0aab

#15000
1aaa
1aab
b1111101011 aac
1aaf
b1111101110 aah
1aak

#17500
0aaa
0aab

#20000
1aaa
1aab
b1111101100 aac
0aaf
b1111110000 aah
0aak

#22500
0aaa
0aab

#25000
1aaa
1aab
b1111101101 aac
1aaf
1aag
b1111110010 aah
1aak
1aal

#27500
0aaa
0aab

#30000
1aaa
1aab
b1111101110 aac
0aaf
0aag
b1111110100 aah
0aak
0aal

#32500
0aaa
0aab

#35000
1aaa
1aab
b1111101111 aac
1aaf
b1111110110 aah
1aak

#37500
0aaa
0aab

#40000
1aaa
1aab
b1111110000 aac
0aaf
b1111111000 aah
0aak

#42500
0aaa
0aab

#45000
1aaa
1aab
b1111110001 aac
1aaf
b1111111010 aah
1aak

#47500
0aaa
0aab

#50000
1aaa
1aab
b1111110010 aac
0aaf
1aag
b1111111100 aah
0aak
1aal

#52500
0aaa
0aab

#55000
1aaa
1aab
b1111110011 aac
1aaf
0aag
b1111111110 aah
1aak
0aal

#57500
0aaa
0aab

#60000
1aaa
1aab
b1111110100 aac
0aaf
b10000000000 aah
0aak

#62500
0aaa
0aab

#65000
1aaa
1aab
b10000000010 aah
1aak

#67500
0aaa
0aab

#70000
1aaa
1aab
b1111110101 aac
1aaf
b10000000100 aah
0aak

#72500
0aaa
0aab

#75000
1aaa
1aab
b10000000110 aah
1aak
1aal

#77500
0aaa
0aab

#80000
1aaa
1aab
b1111110110 aac
0aaf
b10000001000 aah
0aak
0aal

#82500
0aaa
0aab

#85000
1aaa
1aab
b10000001010 aah
1aak

#87500
0aaa
0aab

#90000
1aaa
1aab
b1111110111 aac
1aaf
1aag
b10000001100 aah
0aak

#92500
0aaa
0aab

#95000
1aaa
1aab
b10000001110 aah
1aak

#97500
0aaa
0aab

#100000
1aaa
1aab
b1111111000 aac
0aaf
0aag
b10000010000 aah
0aak
1aal

#102500
0aaa
0aab

#105000
1aaa
1aab
b10000010010 aah
1aak
0aal

#107500
0aaa
0aab

#110000
1aaa
1aab
b1111111001 aac
1aaf
b10000010100 aah
0aak

#112500
0aaa
0aab

#115000
1aaa
1aab
b10000010110 aah
1aak

#117500
0aaa
0aab

#120000
1aaa
1aab
b1111111010 aac
0aaf
b10000011000 aah
0aak

#122500
0aaa
0aab

#125000
1aaa
1aab
b10000011010 aah
1aak
1aal

#127500
0aaa
0aab

#130000
1aaa
1aab
b1111111011 aac
1aaf
b10000011100 aah
0aak
0aal

#132500
0aaa
0aab

#135000
1aaa
1aab
b10000011110 aah
1aak

#137500
0aaa
0aab

#140000
1aaa
1aab
b1111111100 aac
0aaf
1aag
b10000100000 aah
0aak

#142500
0aaa
0aab

#145000
1aaa
1aab
b10000100010 aah
1aak

#147500
0aaa
0aab

#150000
1aaa
1aab
b1111111101 aac
1aaf
0aag
b10000100100 aah
0aak
1aal

#152500
0aaa
0aab

#155000
1aaa
1aab
b10000100110 aah
1aak
0aal

#157500
0aaa
0aab

#160000
1aaa
1aab
b1111111110 aac
0aaf
b10000101000 aah
0aak

#162500
0aaa
0aab

#165000
1aaa
1aab
b10000101010 aah
1aak

#167500
0aaa
0aab

#170000
1aaa
1aab
b1111111111 aac
1aaf
b10000101100 aah
0aak

#172500
0aaa
0aab

#175000
1aaa
1aab
b10000101110 aah
1aak
1aal

#177500
0aaa
0aab

#180000
1aaa
1aab
b10000000000 aac
0aaf
b10000110000 aah
0aak
0aal

#182500
0aaa
0aab

#185000
1aaa
1aab
b10000110010 aah
1aak

#187500
0aaa
0aab

#190000
1aaa
1aab
b10000000001 aac
1aaf
1aag
b10000110100 aah
0aak

#192500
0aaa
0aab

#195000
1aaa
1aab
b10000110110 aah
1aak

#197500
0aaa
0aab

#200000
1aaa
1aab
b10000000010 aac
0aaf
0aag
b10000111000 aah
0aak
1aal

#202500
0aaa
0aab

#205000
1aaa
1aab
b10000111010 aah
1aak
0aal

#207500
0aaa
0aab

#210000
1aaa
1aab
b10000000011 aac
1aaf
b10000111100 aah
0aak

#212500
0aaa
0aab

#215000
1aaa
1aab
b10000111110 aah
1aak

#217500
0aaa
0aab

#220000
1aaa
1aab
b10000000100 aac
0aaf
b10001000000 aah
0aak

#222500
0aaa
0aab

#225000
1aaa
1aab
b10001000010 aah
1aak
1aal

#227500
0aaa
0aab

#230000
1aaa
1aab
b10000000101 aac
1aaf
b10001000100 aah
0aak
0aal

#232500
0aaa
0aab

#235000
1aaa
1aab
b10001000110 aah
1aak

#237500
0aaa
0aab

#240000
1aaa
1aab
b10000000110 aac
0aaf
1aag
b10001001000 aah
0aak

#242500
0aaa
0aab

#245000
1aaa
1aab
b10001001010 aah
1aak

#247500
0aaa
0aab

#250000
1aaa
1aab
b10000000111 aac
1aaf
0aag
b10001001100 aah
0aak
1aal

#252500
0aaa
0aab

#255000
1aaa
1aab
b10001001110 aah
1aak
0aal

#257500
0aaa
0aab

#260000
1aaa
1aab
b10000001000 aac
0aaf
b10001010000 aah
0aak

#262500
0aaa
0aab

#265000
1aaa
1aab
b10001010010 aah
1aak

#267500
0aaa
0aab

#270000
1aaa
1aab
b10000001001 aac
1aaf
b10001010100 aah
0aak

#272500
0aaa
0aab

#275000
1aaa
1aab
b10001010110 aah
1aak
1aal

#277500
0aaa
0aab

#280000
1aaa
1aab
b10000001010 aac
0aaf
b10001011000 aah
0aak
0aal

#282500
0aaa
0aab

#285000
1aaa
1aab
b10001011010 aah
1aak

#287500
0aaa
0aab

#290000
1aaa
1aab
b10000001011 aac
1aaf
1aag
b10001011100 aah
0aak

#292500
0aaa
0aab

#295000
1aaa
1aab
b10001011110 aah
1aak

#297500
0aaa
0aab

#300000
1aaa
1aab
b10000001100 aac
0aaf
0aag
b10001100000 aah
0aak
1aal

#302500
0aaa
0aab

#305000
1aaa
1aab
b10001100010 aah
1aak
0aal

#307500
0aaa
0aab

#310000
1aaa
1aab
b10000001101 aac
1aaf
b10001100100 aah
0aak

#312500
0aaa
0aab

#315000
1aaa
1aab
b10001100110 aah
1aak

#317500
0aaa
0aab

#320000
1aaa
1aab
b10000001110 aac
0aaf
b10001101000 aah
0aak

#322500
0aaa
0aab

#325000
1aaa
1aab
b10001101010 aah
1aak
1aal

#327500
0aaa
0aab

#330000
1aaa
1aab
b10000001111 aac
1aaf
b10001101100 aah
0aak
0aal

#332500
0aaa
0aab

#335000
1aaa
1aab
b10001101110 aah
1aak

#337500
0aaa
0aab

#340000
1aaa
1aab
b10000010000 aac
0aaf
1aag
b10001110000 aah
0aak

#342500
0aaa
0aab

#345000
1aaa
1aab
b10001110010 aah
1aak

#347500
0aaa
0aab

#350000
1aaa
1aab
b10000010001 aac
1aaf
0aag
b10001110100 aah
0aak
1aal

#352500
0aaa
0aab

#355000
1aaa
1aab
b10001110110 aah
1aak
0aal

#357500
0aaa
0aab

#360000
1aaa
1aab
b10000010010 aac
0aaf
b10001111000 aah
0aak

#362500
0aaa
0aab

#365000
1aaa
1aab
b10001111010 aah
1aak

#367500
0aaa
0aab

#370000
1aaa
1aab
b10000010011 aac
1aaf
b10001111100 aah
0aak

